<svg width="15" height="11" viewBox="0 0 15 11" fill="none" xmlns="http://www.w3.org/2000/svg">
<path d="M6.91702 6.15194L6.62294 6.55631L6.91702 6.15194ZM8.0831 6.15194L8.37718 6.55631L8.0831 6.15194ZM1.86645 1.15784H13.1337V0.157837H1.86645V1.15784ZM13.658 1.73386V9.26602H14.658V1.73386H13.658ZM13.1337 9.84205H1.86645V10.842H13.1337V9.84205ZM1.34216 9.26602V1.73386H0.342163V9.26602H1.34216ZM1.86645 9.84205C1.59983 9.84205 1.34216 9.60765 1.34216 9.26602H0.342163C0.342163 10.1129 1.00168 10.842 1.86645 10.842V9.84205ZM13.658 9.26602C13.658 9.60765 13.4003 9.84205 13.1337 9.84205V10.842C13.9984 10.842 14.658 10.1129 14.658 9.26602H13.658ZM13.1337 1.15784C13.4003 1.15784 13.658 1.39223 13.658 1.73386H14.658C14.658 0.886947 13.9984 0.157837 13.1337 0.157837V1.15784ZM1.86645 0.157837C1.00168 0.157837 0.342163 0.886947 0.342163 1.73386H1.34216C1.34216 1.39223 1.59983 1.15784 1.86645 1.15784V0.157837ZM0.548077 2.13823L6.62294 6.55631L7.21111 5.74757L1.13625 1.32949L0.548077 2.13823ZM8.37718 6.55631L14.452 2.13823L13.8639 1.32949L7.78901 5.74757L8.37718 6.55631ZM6.62294 6.55631C7.14902 6.93892 7.85109 6.93892 8.37718 6.55631L7.78901 5.74757C7.61357 5.87516 7.38654 5.87516 7.21111 5.74757L6.62294 6.55631Z" fill="white"/>
</svg>
