<svg width="26" height="28" viewBox="0 0 26 28" fill="none" xmlns="http://www.w3.org/2000/svg">
<path fill-rule="evenodd" clip-rule="evenodd" d="M13.0452 15.4762L9.518 5.17325C9.23968 4.36029 8.31374 3.9068 7.49854 4.27023C6.99512 4.49466 6.508 4.74909 6.04036 5.03159C4.95357 5.68813 3.97011 6.49692 3.12557 7.43541C1.5631 9.17166 0.536969 11.2842 0.160614 13.5394C-0.215741 15.7946 0.0723426 18.1047 0.993016 20.2142C1.91369 22.3237 3.43109 24.1505 5.37745 25.4926C7.32381 26.8347 9.62331 27.6398 12.0217 27.819C14.4201 27.9981 16.824 27.5443 18.9677 26.5077C21.1113 25.4711 22.9111 23.8921 24.1681 21.9452C24.8476 20.8929 25.3542 19.7553 25.6762 18.5714C25.8149 18.0617 25.9194 17.5435 25.9887 17.0198C26.101 16.1717 25.3604 15.4762 24.4598 15.4762H13.0452ZM22.2696 18.5714H11.8605C11.1541 18.5714 10.528 18.1397 10.3097 17.502L7.09307 8.1065C6.55156 8.50044 6.05257 8.94879 5.60549 9.4456C4.43364 10.7478 3.66404 12.3322 3.38177 14.0236C3.09951 15.715 3.31557 17.4475 4.00607 19.0297C4.69658 20.6118 5.83463 21.9819 7.2944 22.9885C8.75417 23.9951 10.4788 24.5989 12.2776 24.7333C14.0764 24.8676 15.8793 24.5273 17.4871 23.7498C19.0948 22.9724 20.4446 21.7881 21.3874 20.328C21.7471 19.7709 22.0422 19.1819 22.2696 18.5714Z" fill="white"/>
<path fill-rule="evenodd" clip-rule="evenodd" d="M10.0348 1.80022C9.8242 1.18192 10.1803 0.513326 10.847 0.365449C11.5128 0.21778 12.1877 0.114659 12.8667 0.0564572C14.0682 -0.0465267 15.2827 -0.00887167 16.4825 0.171485C17.6824 0.351842 18.8497 0.672215 19.9589 1.12254C20.4667 1.32871 20.9623 1.56212 21.4433 1.82181C22.2261 2.24443 22.3839 3.22068 21.8545 3.91217L16.0678 11.4713C15.2847 12.4943 13.6095 12.2425 13.1978 11.0399L10.0954 1.9781L10.0348 1.80022ZM15.3105 7.19466L17.9779 3.71023C17.3283 3.49312 16.6571 3.33155 15.9724 3.22862C15.2876 3.12568 14.5967 3.08251 13.9082 3.09847L15.3105 7.19466Z" fill="white"/>
<path fill-rule="evenodd" clip-rule="evenodd" d="M21.0989 7.66832C21.6283 6.97683 22.6602 6.81568 23.2909 7.42583C23.6864 7.80855 24.0465 8.22322 24.367 8.66524C24.6093 8.9995 24.8289 9.3494 25.0241 9.71294C25.2193 10.0765 25.3884 10.4508 25.5309 10.8333C25.7194 11.3392 25.8612 11.8594 25.9549 12.3881C26.1043 13.231 25.3604 13.9286 24.4598 13.9286L19.5069 13.9286C18.1745 13.9286 17.4045 12.4943 18.1877 11.4713L21.0989 7.66832Z" fill="white"/>
</svg>
