<svg width="17" height="17" viewBox="0 0 17 17" fill="none" xmlns="http://www.w3.org/2000/svg">
<path fill-rule="evenodd" clip-rule="evenodd" d="M6.5 11C8.98528 11 11 8.98528 11 6.5C11 4.01472 8.98528 2 6.5 2C4.01472 2 2 4.01472 2 6.5C2 8.98528 4.01472 11 6.5 11ZM6.5 13C10.0899 13 13 10.0899 13 6.5C13 2.91015 10.0899 0 6.5 0C2.91015 0 0 2.91015 0 6.5C0 10.0899 2.91015 13 6.5 13Z" fill="#1B2132"/>
<path d="M9.70708 9.70711C10.0976 9.31658 10.7308 9.31658 11.1213 9.70711L15.8744 14.4602C16.2649 14.8508 16.2649 15.4839 15.8744 15.8744C15.4839 16.265 14.8507 16.265 14.4602 15.8744L9.70708 11.1213C9.31655 10.7308 9.31655 10.0976 9.70708 9.70711Z" fill="#1B2132"/>
</svg>
