<svg width="225" height="14" viewBox="0 0 225 14" fill="none" xmlns="http://www.w3.org/2000/svg">
<path d="M7.57362 8.27154C7.57362 7.9537 7.51835 7.67041 7.40779 7.42166C7.29724 7.17291 7.11989 6.9495 6.87575 6.75143C6.63161 6.55335 6.31147 6.3714 5.91532 6.20557C5.52377 6.03974 5.0424 5.87851 4.4712 5.72189C3.95989 5.5837 3.49925 5.4363 3.08928 5.27968C2.67931 5.11845 2.32922 4.9342 2.03902 4.72691C1.75342 4.51962 1.53462 4.27318 1.3826 3.98758C1.23059 3.69738 1.15459 3.34959 1.15459 2.94423C1.15459 2.56189 1.2375 2.21872 1.40333 1.91469C1.57377 1.61067 1.8087 1.35271 2.10811 1.14082C2.41214 0.92892 2.76683 0.767696 3.1722 0.657142C3.57756 0.541982 4.01747 0.484401 4.49193 0.484401C5.14604 0.484401 5.72415 0.608775 6.22625 0.857521C6.72835 1.10627 7.1222 1.45405 7.40779 1.90087C7.698 2.34309 7.8431 2.86131 7.8431 3.45554H7.46998C7.46998 2.95805 7.34561 2.51353 7.09686 2.12198C6.84811 1.73044 6.50033 1.42181 6.05351 1.19609C5.61129 0.970378 5.09077 0.857521 4.49193 0.857521C3.86085 0.857521 3.32421 0.954256 2.88199 1.14773C2.43978 1.34119 2.10351 1.59685 1.87319 1.91469C1.64287 2.22793 1.52771 2.5665 1.52771 2.93041C1.52771 3.19758 1.57377 3.44633 1.6659 3.67665C1.76263 3.90697 1.92386 4.12117 2.14957 4.31924C2.37529 4.51271 2.68622 4.69697 3.08237 4.87201C3.47852 5.04245 3.97601 5.20598 4.57485 5.36259C5.07234 5.49157 5.52607 5.63668 5.93604 5.7979C6.35062 5.95912 6.70762 6.15029 7.00704 6.3714C7.31106 6.59251 7.54368 6.85738 7.70491 7.16601C7.87074 7.47003 7.95365 7.83394 7.95365 8.25772C7.95365 8.6677 7.86383 9.0316 7.68418 9.34945C7.50913 9.66729 7.26499 9.93676 6.95176 10.1579C6.63852 10.3744 6.27462 10.5402 5.86004 10.6554C5.45007 10.7659 5.01015 10.8212 4.5403 10.8212C4.1119 10.8212 3.6789 10.7705 3.24129 10.6692C2.80368 10.5678 2.40292 10.4043 2.03902 10.1786C1.67511 9.94828 1.3826 9.64195 1.1615 9.25962C0.940388 8.87729 0.829834 8.40513 0.829834 7.84315H1.20295C1.20295 8.34525 1.3066 8.76443 1.51389 9.1007C1.72118 9.43697 1.99065 9.70414 2.32231 9.90222C2.65858 10.0957 3.02018 10.2362 3.40712 10.3237C3.79867 10.4066 4.17639 10.4481 4.5403 10.4481C5.12992 10.4481 5.65275 10.3559 6.10878 10.1717C6.56482 9.98743 6.92182 9.73178 7.17978 9.40472C7.44234 9.07767 7.57362 8.69994 7.57362 8.27154Z" fill="white"/>
<path d="M10.1924 3.20679V10.683H9.81925V3.20679H10.1924ZM9.62578 0.87134C9.62578 0.765393 9.66263 0.675568 9.73634 0.601865C9.81004 0.523556 9.89986 0.484401 10.0058 0.484401C10.1118 0.484401 10.2016 0.523556 10.2753 0.601865C10.3536 0.675568 10.3927 0.765393 10.3927 0.87134C10.3927 0.977288 10.3536 1.06711 10.2753 1.14082C10.2016 1.21452 10.1118 1.25137 10.0058 1.25137C9.89986 1.25137 9.81004 1.21452 9.73634 1.14082C9.66263 1.06711 9.62578 0.977288 9.62578 0.87134Z" fill="white"/>
<path d="M13.0184 10.683H12.6453V3.20679H13.0184V10.683ZM12.9562 6.3023L12.7558 5.90845C12.8019 5.53994 12.9032 5.18755 13.0599 4.85128C13.2165 4.51041 13.4215 4.20638 13.6748 3.93921C13.9282 3.67204 14.223 3.46014 14.5593 3.30353C14.8955 3.14691 15.2663 3.0686 15.6717 3.0686C16.0494 3.0686 16.3857 3.12157 16.6805 3.22752C16.9753 3.32886 17.2241 3.49239 17.4267 3.7181C17.6294 3.93921 17.7837 4.22481 17.8897 4.5749C17.9956 4.92498 18.0486 5.34877 18.0486 5.84627V10.683H17.6755V5.84627C17.6755 5.21058 17.588 4.72 17.4129 4.37452C17.2425 4.02443 17.0053 3.78029 16.7012 3.6421C16.3972 3.50391 16.0471 3.43481 15.651 3.43481C15.1811 3.43481 14.7781 3.54076 14.4418 3.75265C14.1101 3.95994 13.836 4.2202 13.6195 4.53344C13.4076 4.84668 13.2464 5.16452 13.1359 5.48697C13.0299 5.80942 12.97 6.08119 12.9562 6.3023Z" fill="white"/>
<path d="M25.3935 3.20679H25.7736V10.5794C25.7736 11.215 25.6607 11.7655 25.435 12.2308C25.2093 12.7006 24.8845 13.0622 24.4607 13.3156C24.0416 13.5689 23.5372 13.6956 22.9475 13.6956C22.5836 13.6956 22.2497 13.6426 21.9456 13.5367C21.6462 13.4307 21.3744 13.281 21.1303 13.0876C20.8908 12.8987 20.6812 12.6822 20.5015 12.438L20.7641 12.1893C21.0543 12.5532 21.3721 12.8342 21.7176 13.0323C22.0677 13.2303 22.4731 13.3294 22.9337 13.3294C23.4773 13.3294 23.931 13.2165 24.2949 12.9908C24.6588 12.7651 24.9329 12.445 25.1172 12.0304C25.3014 11.6204 25.3935 11.1367 25.3935 10.5794V3.20679ZM20.0455 7.01399V6.86889C20.0455 6.27927 20.1077 5.75184 20.232 5.28659C20.361 4.81673 20.5453 4.41828 20.7848 4.09122C21.029 3.75956 21.3261 3.50621 21.6762 3.33117C22.0262 3.15612 22.4224 3.0686 22.8646 3.0686C23.27 3.0686 23.6316 3.13079 23.9494 3.25516C24.2719 3.37953 24.5529 3.55458 24.7924 3.78029C25.0319 4.0014 25.23 4.26166 25.3866 4.56108C25.5432 4.86049 25.663 5.18525 25.7459 5.53533V8.58248C25.686 8.87729 25.5801 9.16058 25.4281 9.43236C25.2807 9.69953 25.0849 9.93907 24.8408 10.151C24.6012 10.3582 24.3156 10.5218 23.984 10.6415C23.6523 10.7613 23.2746 10.8212 22.8508 10.8212C22.4086 10.8212 22.0124 10.7314 21.6623 10.5517C21.3169 10.3675 21.0244 10.1072 20.7848 9.77093C20.5453 9.43466 20.361 9.03391 20.232 8.56866C20.1077 8.10341 20.0455 7.58519 20.0455 7.01399ZM20.4255 6.86889V7.01399C20.4255 7.51149 20.4739 7.96982 20.5706 8.38901C20.672 8.80819 20.8217 9.1721 21.0197 9.48073C21.2224 9.78475 21.4758 10.022 21.7798 10.1924C22.0838 10.3629 22.4385 10.4481 22.8439 10.4481C23.369 10.4481 23.8135 10.3559 24.1774 10.1717C24.5413 9.98743 24.8316 9.74099 25.0481 9.43236C25.2646 9.12373 25.4143 8.78286 25.4972 8.40974V5.78408C25.4465 5.55376 25.3682 5.30501 25.2623 5.03784C25.1563 4.76606 25.0043 4.51041 24.8062 4.27087C24.6081 4.02673 24.3502 3.82866 24.0323 3.67665C23.7191 3.52003 23.3276 3.44172 22.8577 3.44172C22.4477 3.44172 22.0884 3.52694 21.7798 3.69738C21.4758 3.86781 21.2224 4.10735 21.0197 4.41598C20.8217 4.72 20.672 5.0816 20.5706 5.50079C20.4739 5.91536 20.4255 6.3714 20.4255 6.86889Z" fill="white"/>
<path d="M28.6272 0.0698242V10.683H28.2541V0.0698242H28.6272Z" fill="white"/>
<path d="M33.768 10.8212C33.312 10.8212 32.8859 10.7314 32.4897 10.5517C32.0936 10.3675 31.7458 10.1095 31.4464 9.77784C31.1469 9.44618 30.912 9.05464 30.7416 8.60321C30.5758 8.14717 30.4928 7.64738 30.4928 7.10382V6.7998C30.4928 6.25163 30.5735 5.75184 30.7347 5.30041C30.9005 4.84437 31.1262 4.45052 31.4118 4.11886C31.702 3.78259 32.036 3.52463 32.4137 3.34498C32.7914 3.16073 33.1968 3.0686 33.6298 3.0686C34.0444 3.0686 34.4244 3.14691 34.7699 3.30353C35.1154 3.45554 35.4148 3.67204 35.6681 3.95303C35.9261 4.23402 36.1242 4.57029 36.2624 4.96184C36.4006 5.35338 36.4697 5.78638 36.4697 6.26084V6.69615H30.7347V6.32303H36.0965V6.23321C36.0965 5.73111 35.9952 5.27047 35.7925 4.85128C35.5898 4.42749 35.3042 4.08662 34.9357 3.82866C34.5672 3.5707 34.1319 3.44172 33.6298 3.44172C33.2152 3.44172 32.8375 3.52924 32.4966 3.70428C32.1604 3.87933 31.8702 4.12117 31.626 4.4298C31.3819 4.73382 31.193 5.08851 31.0594 5.49388C30.9304 5.89924 30.866 6.33455 30.866 6.7998V7.10382C30.866 7.56907 30.9397 8.00437 31.0871 8.40974C31.2345 8.8151 31.4395 9.1721 31.702 9.48073C31.9646 9.78475 32.2709 10.0243 32.621 10.1993C32.9757 10.3698 33.358 10.455 33.768 10.455C34.1964 10.455 34.5948 10.3836 34.9634 10.2408C35.3365 10.098 35.6774 9.82621 35.986 9.42545L36.2486 9.61201C36.0827 9.84694 35.8823 10.0565 35.6474 10.2408C35.4171 10.4204 35.1453 10.5632 34.8321 10.6692C34.5234 10.7705 34.1688 10.8212 33.768 10.8212Z" fill="white"/>
<path d="M44.5746 10.683H42.1217L42.1355 10.3099H44.5746C45.2979 10.3099 45.9427 10.1371 46.5093 9.79166C47.0805 9.44618 47.5297 8.96942 47.8567 8.36137C48.1884 7.75332 48.3542 7.05545 48.3542 6.26775V5.01711C48.3542 4.4321 48.2598 3.89545 48.0709 3.40717C47.882 2.91428 47.6172 2.48819 47.2763 2.12889C46.9354 1.76959 46.5347 1.4909 46.074 1.29283C45.6134 1.09475 45.1136 0.995713 44.5746 0.995713H42.0803V0.622594H44.5746C45.1689 0.622594 45.717 0.728541 46.2191 0.940436C46.7258 1.15233 47.1658 1.45405 47.5389 1.8456C47.9166 2.23714 48.2091 2.70469 48.4164 3.24825C48.6237 3.7872 48.7273 4.38373 48.7273 5.03784V6.26775C48.7273 6.92186 48.6237 7.5207 48.4164 8.06426C48.2091 8.60321 47.9166 9.06845 47.5389 9.46C47.1658 9.85154 46.7258 10.1533 46.2191 10.3652C45.717 10.5771 45.1689 10.683 44.5746 10.683ZM42.1632 0.622594V10.683H41.7901V0.622594H42.1632Z" fill="white"/>
<path d="M55.5471 9.28035V5.41787C55.5471 5.00329 55.4573 4.6486 55.2776 4.35379C55.1026 4.05898 54.8446 3.83326 54.5038 3.67665C54.1675 3.52003 53.7552 3.44172 53.2669 3.44172C52.8155 3.44172 52.4079 3.52233 52.0439 3.68356C51.6846 3.84017 51.399 4.05668 51.1872 4.33306C50.9799 4.60945 50.8762 4.92038 50.8762 5.26586L50.5031 5.25204C50.5031 4.96184 50.5699 4.68545 50.7035 4.42289C50.8417 4.16032 51.0328 3.9277 51.277 3.72501C51.5257 3.52233 51.8182 3.36341 52.1545 3.24825C52.4954 3.12848 52.8662 3.0686 53.2669 3.0686C53.7875 3.0686 54.2458 3.15612 54.642 3.33117C55.0427 3.50621 55.356 3.76877 55.5817 4.11886C55.8074 4.46895 55.9202 4.90656 55.9202 5.43169V9.1767C55.9202 9.44388 55.9364 9.71335 55.9686 9.98513C56.0055 10.2569 56.0538 10.4688 56.1137 10.6208V10.683H55.6853C55.6393 10.5034 55.6047 10.2869 55.5817 10.0335C55.5586 9.77554 55.5471 9.52449 55.5471 9.28035ZM55.713 6.50959L55.7268 6.88962H53.7783C53.2946 6.88962 52.8616 6.93799 52.4793 7.03472C52.0969 7.12685 51.7722 7.25813 51.505 7.42857C51.2378 7.59901 51.0328 7.80169 50.89 8.03662C50.7472 8.27154 50.6758 8.53181 50.6758 8.8174C50.6758 9.11682 50.7565 9.3909 50.9177 9.63965C51.0835 9.8884 51.3115 10.0865 51.6017 10.2339C51.8919 10.3813 52.2259 10.455 52.6036 10.455C53.1288 10.455 53.594 10.3698 53.9994 10.1993C54.4047 10.0243 54.7479 9.78014 55.0289 9.46691C55.3099 9.15367 55.5241 8.78286 55.6715 8.35446L55.8373 8.69994C55.7498 8.9579 55.6185 9.21356 55.4435 9.46691C55.273 9.71566 55.0542 9.94367 54.7871 10.151C54.5199 10.3536 54.2044 10.5172 53.8404 10.6415C53.4811 10.7613 53.0689 10.8212 52.6036 10.8212C52.1384 10.8212 51.733 10.736 51.3875 10.5655C51.042 10.3905 50.7749 10.151 50.586 9.84694C50.3972 9.53831 50.3027 9.18592 50.3027 8.78977C50.3027 8.4581 50.381 8.15408 50.5376 7.8777C50.6943 7.5967 50.92 7.35487 51.2148 7.15219C51.5142 6.9449 51.8781 6.78598 52.3065 6.67542C52.7349 6.56487 53.2186 6.50959 53.7575 6.50959H55.713Z" fill="white"/>
<path d="M62.9404 8.85195C62.9404 8.62624 62.8782 8.39822 62.7539 8.1679C62.6295 7.93297 62.4038 7.71417 62.0767 7.51149C61.7497 7.3088 61.2775 7.14067 60.6602 7.00708C60.2411 6.91496 59.8725 6.81361 59.5547 6.70306C59.2415 6.59251 58.9789 6.46122 58.767 6.30921C58.5551 6.15259 58.3962 5.96373 58.2902 5.74262C58.1843 5.52152 58.1313 5.25895 58.1313 4.95493C58.1313 4.69236 58.1866 4.44822 58.2972 4.22251C58.4123 3.99219 58.5781 3.79181 58.7946 3.62137C59.0111 3.44633 59.2737 3.31044 59.5823 3.2137C59.891 3.11697 60.2411 3.0686 60.6326 3.0686C61.19 3.0686 61.6667 3.15842 62.0629 3.33807C62.4637 3.51773 62.77 3.76877 62.9819 4.09122C63.1984 4.40907 63.3066 4.77988 63.3066 5.20367H62.9266C62.9266 4.89504 62.8368 4.60714 62.6571 4.33997C62.4821 4.0728 62.2241 3.8563 61.8832 3.69047C61.5424 3.52463 61.1255 3.44172 60.6326 3.44172C60.1305 3.44172 59.7228 3.51773 59.4096 3.66974C59.0964 3.82175 58.866 4.01291 58.7186 4.24324C58.5758 4.47356 58.5044 4.70618 58.5044 4.94111C58.5044 5.13458 58.5321 5.31423 58.5874 5.48006C58.6426 5.64128 58.7486 5.79329 58.9052 5.93609C59.0664 6.07429 59.2967 6.20557 59.5962 6.32994C59.8956 6.45431 60.2871 6.57178 60.7708 6.68233C61.365 6.81592 61.8487 6.97714 62.2218 7.16601C62.5949 7.35487 62.869 7.58749 63.0441 7.86388C63.2237 8.13566 63.3135 8.46732 63.3135 8.85886C63.3135 9.14907 63.2514 9.41393 63.127 9.65347C63.0072 9.893 62.8322 10.1003 62.6018 10.2753C62.3761 10.4504 62.0997 10.5863 61.7727 10.683C61.4502 10.7751 61.0886 10.8212 60.6879 10.8212C60.0844 10.8212 59.5731 10.7291 59.1539 10.5448C58.7394 10.3559 58.4238 10.1072 58.2073 9.79857C57.9954 9.48533 57.8895 9.14676 57.8895 8.78286H58.2626C58.2948 9.21125 58.4353 9.54752 58.6841 9.79166C58.9374 10.0312 59.2438 10.2016 59.6031 10.303C59.967 10.3997 60.3286 10.4481 60.6879 10.4481C61.1808 10.4481 61.593 10.3698 61.9247 10.2131C62.261 10.0565 62.5143 9.85615 62.6848 9.61201C62.8552 9.36326 62.9404 9.10991 62.9404 8.85195Z" fill="white"/>
<path d="M65.7526 0.0698242V10.683H65.3795V0.0698242H65.7526ZM65.6904 6.3023L65.4901 5.90845C65.5361 5.53994 65.6375 5.18755 65.7941 4.85128C65.9507 4.51041 66.1557 4.20638 66.409 3.93921C66.6624 3.67204 66.9572 3.46014 67.2935 3.30353C67.6297 3.14691 68.0006 3.0686 68.4059 3.0686C68.7837 3.0686 69.1199 3.12157 69.4147 3.22752C69.7095 3.32886 69.9583 3.49239 70.161 3.7181C70.3637 3.93921 70.518 4.22481 70.6239 4.5749C70.7299 4.92498 70.7828 5.34877 70.7828 5.84627V10.683H70.4097V5.84627C70.4097 5.21058 70.3222 4.72 70.1472 4.37452C69.9767 4.02443 69.7395 3.78029 69.4355 3.6421C69.1314 3.50391 68.7813 3.43481 68.3852 3.43481C67.9153 3.43481 67.5123 3.54076 67.176 3.75265C66.8444 3.95994 66.5703 4.2202 66.3538 4.53344C66.1419 4.84668 65.9807 5.16452 65.8701 5.48697C65.7642 5.80942 65.7043 6.08119 65.6904 6.3023Z" fill="white"/>
<path d="M73.1183 0.0698242H73.4914V10.683H73.1183V0.0698242ZM78.8464 6.86889V7.01399C78.8464 7.58519 78.7819 8.10341 78.6529 8.56866C78.5285 9.03391 78.3466 9.43466 78.107 9.77093C77.8675 10.1072 77.5727 10.3675 77.2226 10.5517C76.8771 10.7314 76.4833 10.8212 76.0411 10.8212C75.6219 10.8212 75.2441 10.7613 74.9079 10.6415C74.5762 10.5218 74.2883 10.3582 74.0442 10.151C73.8 9.93907 73.602 9.69953 73.45 9.43236C73.2979 9.16058 73.192 8.87729 73.1321 8.58248V5.53533C73.215 5.18525 73.3348 4.86049 73.4914 4.56108C73.6526 4.26166 73.853 4.0014 74.0925 3.78029C74.3321 3.55458 74.6131 3.37953 74.9355 3.25516C75.258 3.13079 75.6219 3.0686 76.0272 3.0686C76.4695 3.0686 76.8656 3.15612 77.2157 3.33117C77.5658 3.50621 77.8606 3.75956 78.1001 4.09122C78.3443 4.41828 78.5285 4.81673 78.6529 5.28659C78.7819 5.75184 78.8464 6.27927 78.8464 6.86889ZM78.4594 7.01399V6.86889C78.4594 6.3714 78.4088 5.91536 78.3074 5.50079C78.2107 5.0816 78.061 4.72 77.8583 4.41598C77.6602 4.10735 77.4092 3.86781 77.1051 3.69738C76.8011 3.52694 76.4441 3.44172 76.0341 3.44172C75.5643 3.44172 75.1704 3.52003 74.8526 3.67665C74.5348 3.82866 74.2768 4.02673 74.0787 4.27087C73.8807 4.51041 73.7263 4.76606 73.6158 5.03784C73.5098 5.30501 73.4315 5.55376 73.3809 5.78408V8.40974C73.4638 8.78286 73.6135 9.12373 73.83 9.43236C74.0511 9.74099 74.3459 9.98743 74.7144 10.1717C75.0829 10.3559 75.5274 10.4481 76.048 10.4481C76.4579 10.4481 76.8126 10.3629 77.1121 10.1924C77.4161 10.022 77.6671 9.78475 77.8652 9.48073C78.0633 9.1721 78.2107 8.80819 78.3074 8.38901C78.4088 7.96982 78.4594 7.51149 78.4594 7.01399Z" fill="white"/>
<path d="M80.3181 7.09V6.7998C80.3181 6.25163 80.3964 5.74953 80.553 5.2935C80.7143 4.83746 80.9377 4.44361 81.2233 4.11195C81.5135 3.78029 81.859 3.52463 82.2597 3.34498C82.6605 3.16073 83.1027 3.0686 83.5864 3.0686C84.0746 3.0686 84.5192 3.16073 84.9199 3.34498C85.3207 3.52463 85.6662 3.78029 85.9564 4.11195C86.2466 4.44361 86.47 4.83746 86.6266 5.2935C86.7832 5.74953 86.8615 6.25163 86.8615 6.7998V7.09C86.8615 7.63816 86.7832 8.14026 86.6266 8.5963C86.47 9.05233 86.2466 9.44618 85.9564 9.77784C85.6708 10.1095 85.3276 10.3675 84.9268 10.5517C84.5261 10.7314 84.0839 10.8212 83.6002 10.8212C83.1119 10.8212 82.6674 10.7314 82.2666 10.5517C81.8659 10.3675 81.5204 10.1095 81.2302 9.77784C80.94 9.44618 80.7143 9.05233 80.553 8.5963C80.3964 8.14026 80.3181 7.63816 80.3181 7.09ZM80.6912 6.7998V7.09C80.6912 7.53682 80.7557 7.96291 80.8847 8.36828C81.0183 8.76904 81.2095 9.12603 81.4582 9.43927C81.7069 9.75251 82.011 9.99895 82.3703 10.1786C82.7296 10.3582 83.1395 10.4481 83.6002 10.4481C84.0562 10.4481 84.4616 10.3582 84.8163 10.1786C85.1756 9.99895 85.4796 9.75251 85.7283 9.43927C85.9771 9.12603 86.166 8.76904 86.2949 8.36828C86.4239 7.96291 86.4884 7.53682 86.4884 7.09V6.7998C86.4884 6.36219 86.4239 5.943 86.2949 5.54224C86.166 5.14149 85.9748 4.78449 85.7214 4.47125C85.4727 4.15341 85.1687 3.90236 84.8094 3.7181C84.4501 3.53385 84.0424 3.44172 83.5864 3.44172C83.1303 3.44172 82.7227 3.53385 82.3634 3.7181C82.0087 3.90236 81.7046 4.15341 81.4513 4.47125C81.2025 4.78449 81.0137 5.14149 80.8847 5.54224C80.7557 5.943 80.6912 6.36219 80.6912 6.7998Z" fill="white"/>
<path d="M93.3704 9.28035V5.41787C93.3704 5.00329 93.2806 4.6486 93.1009 4.35379C92.9259 4.05898 92.6679 3.83326 92.327 3.67665C91.9908 3.52003 91.5785 3.44172 91.0902 3.44172C90.6388 3.44172 90.2311 3.52233 89.8672 3.68356C89.5079 3.84017 89.2223 4.05668 89.0104 4.33306C88.8031 4.60945 88.6995 4.92038 88.6995 5.26586L88.3264 5.25204C88.3264 4.96184 88.3932 4.68545 88.5267 4.42289C88.6649 4.16032 88.8561 3.9277 89.1002 3.72501C89.349 3.52233 89.6415 3.36341 89.9778 3.24825C90.3186 3.12848 90.6895 3.0686 91.0902 3.0686C91.6107 3.0686 92.0691 3.15612 92.4652 3.33117C92.866 3.50621 93.1792 3.76877 93.4049 4.11886C93.6307 4.46895 93.7435 4.90656 93.7435 5.43169V9.1767C93.7435 9.44388 93.7596 9.71335 93.7919 9.98513C93.8287 10.2569 93.8771 10.4688 93.937 10.6208V10.683H93.5086C93.4625 10.5034 93.428 10.2869 93.4049 10.0335C93.3819 9.77554 93.3704 9.52449 93.3704 9.28035ZM93.5362 6.50959L93.55 6.88962H91.6015C91.1179 6.88962 90.6849 6.93799 90.3025 7.03472C89.9202 7.12685 89.5954 7.25813 89.3283 7.42857C89.0611 7.59901 88.8561 7.80169 88.7133 8.03662C88.5705 8.27154 88.4991 8.53181 88.4991 8.8174C88.4991 9.11682 88.5797 9.3909 88.7409 9.63965C88.9068 9.8884 89.1348 10.0865 89.425 10.2339C89.7152 10.3813 90.0492 10.455 90.4269 10.455C90.952 10.455 91.4173 10.3698 91.8226 10.1993C92.228 10.0243 92.5712 9.78014 92.8522 9.46691C93.1332 9.15367 93.3474 8.78286 93.4948 8.35446L93.6606 8.69994C93.5731 8.9579 93.4418 9.21356 93.2667 9.46691C93.0963 9.71566 92.8775 9.94367 92.6103 10.151C92.3432 10.3536 92.0276 10.5172 91.6637 10.6415C91.3044 10.7613 90.8921 10.8212 90.4269 10.8212C89.9616 10.8212 89.5563 10.736 89.2108 10.5655C88.8653 10.3905 88.5981 10.151 88.4093 9.84694C88.2204 9.53831 88.126 9.18592 88.126 8.78977C88.126 8.4581 88.2043 8.15408 88.3609 7.8777C88.5175 7.5967 88.7432 7.35487 89.0381 7.15219C89.3375 6.9449 89.7014 6.78598 90.1298 6.67542C90.5582 6.56487 91.0418 6.50959 91.5808 6.50959H93.5362Z" fill="white"/>
<path d="M96.5281 10.683H96.155V3.20679H96.5281V10.683ZM99.4923 3.14461L99.4509 3.47627C99.3772 3.46705 99.2988 3.45784 99.2159 3.44863C99.1376 3.43942 99.0547 3.43481 98.9672 3.43481C98.548 3.43481 98.1795 3.52003 97.8616 3.69047C97.5484 3.8609 97.2858 4.09583 97.0739 4.39525C96.8667 4.69466 96.71 5.04014 96.6041 5.43169C96.5027 5.81863 96.4521 6.23321 96.4521 6.67542L96.2033 6.69615C96.2033 6.17102 96.2586 5.68735 96.3692 5.24513C96.4843 4.80291 96.6548 4.42058 96.8805 4.09813C97.1108 3.77108 97.3987 3.51773 97.7442 3.33807C98.0943 3.15842 98.5019 3.0686 98.9672 3.0686C99.0823 3.0686 99.1837 3.07551 99.2712 3.08933C99.3587 3.10315 99.4324 3.12157 99.4923 3.14461Z" fill="white"/>
<path d="M105.766 0.0698242H106.139V10.683H105.766V0.0698242ZM100.411 7.01399V6.86889C100.411 6.27927 100.473 5.75184 100.598 5.28659C100.727 4.81673 100.911 4.41828 101.151 4.09122C101.395 3.75956 101.692 3.50621 102.042 3.33117C102.392 3.15612 102.788 3.0686 103.23 3.0686C103.64 3.0686 104.004 3.13079 104.322 3.25516C104.645 3.37953 104.923 3.55458 105.158 3.78029C105.398 4.0014 105.596 4.26166 105.752 4.56108C105.909 4.86049 106.029 5.18525 106.112 5.53533V8.58248C106.052 8.87729 105.946 9.16058 105.794 9.43236C105.646 9.69953 105.451 9.93907 105.207 10.151C104.967 10.3582 104.681 10.5218 104.35 10.6415C104.018 10.7613 103.64 10.8212 103.217 10.8212C102.774 10.8212 102.378 10.7314 102.028 10.5517C101.683 10.3675 101.39 10.1072 101.151 9.77093C100.911 9.43466 100.727 9.03391 100.598 8.56866C100.473 8.10341 100.411 7.58519 100.411 7.01399ZM100.798 6.86889V7.01399C100.798 7.51149 100.847 7.96982 100.943 8.38901C101.045 8.80819 101.194 9.1721 101.392 9.48073C101.591 9.78475 101.842 10.022 102.146 10.1924C102.45 10.3629 102.804 10.4481 103.21 10.4481C103.735 10.4481 104.182 10.3559 104.55 10.1717C104.919 9.98743 105.213 9.74099 105.435 9.43236C105.656 9.12373 105.808 8.78286 105.891 8.40974V5.78408C105.84 5.55376 105.759 5.30501 105.649 5.03784C105.543 4.76606 105.389 4.51041 105.186 4.27087C104.988 4.02673 104.728 3.82866 104.405 3.67665C104.087 3.52003 103.693 3.44172 103.224 3.44172C102.814 3.44172 102.457 3.52694 102.153 3.69738C101.848 3.86781 101.595 4.10735 101.392 4.41598C101.194 4.72 101.045 5.0816 100.943 5.50079C100.847 5.91536 100.798 6.3714 100.798 6.86889Z" fill="white"/>
<path d="M115.44 5.71498H112.317L112.303 5.34187H114.873C115.481 5.34187 115.99 5.26356 116.4 5.10694C116.815 4.95032 117.126 4.71079 117.333 4.38834C117.54 4.06589 117.644 3.66052 117.644 3.17224C117.644 2.68857 117.533 2.28551 117.312 1.96306C117.096 1.64061 116.771 1.39877 116.338 1.23755C115.91 1.07633 115.375 0.995713 114.735 0.995713H112.462V10.683H112.089V0.622594H114.735C115.242 0.622594 115.698 0.673264 116.103 0.774606C116.508 0.875947 116.854 1.03256 117.139 1.24446C117.425 1.45635 117.644 1.72583 117.796 2.05289C117.948 2.37533 118.024 2.75767 118.024 3.19988C118.024 3.61446 117.946 3.98758 117.789 4.31924C117.637 4.6509 117.414 4.92038 117.119 5.12767C116.824 5.33496 116.46 5.46163 116.027 5.5077L115.44 5.71498ZM115.371 10.683H112.303L112.42 10.3099H115.371C115.937 10.3099 116.423 10.2155 116.829 10.0266C117.239 9.83773 117.554 9.56595 117.775 9.21125C117.996 8.85195 118.107 8.42356 118.107 7.92606C118.107 7.53912 118.008 7.17752 117.81 6.84125C117.616 6.50498 117.321 6.23321 116.925 6.02592C116.529 5.81863 116.034 5.71498 115.44 5.71498H113.809L113.823 5.34187H116.207L116.234 5.47315C116.658 5.52382 117.038 5.66431 117.374 5.89463C117.715 6.12496 117.985 6.41746 118.183 6.77216C118.381 7.12224 118.48 7.50227 118.48 7.91224C118.48 8.50647 118.346 9.01087 118.079 9.42545C117.817 9.83542 117.453 10.1487 116.987 10.3652C116.522 10.5771 115.983 10.683 115.371 10.683Z" fill="white"/>
<path d="M125.445 3.20679H125.825V10.683H125.445V3.20679ZM125.507 7.76023L125.825 7.74641C125.825 8.18863 125.767 8.5963 125.652 8.96942C125.537 9.34254 125.36 9.66959 125.12 9.95058C124.881 10.227 124.574 10.4412 124.201 10.5932C123.828 10.7452 123.383 10.8212 122.868 10.8212C122.504 10.8212 122.17 10.7705 121.866 10.6692C121.566 10.5632 121.306 10.3974 121.085 10.1717C120.868 9.94598 120.7 9.65117 120.58 9.28726C120.465 8.91875 120.408 8.47423 120.408 7.9537V3.20679H120.781V7.96752C120.781 8.42356 120.832 8.81049 120.933 9.12834C121.039 9.44618 121.184 9.70184 121.368 9.89531C121.557 10.0888 121.776 10.2293 122.025 10.3168C122.278 10.4043 122.554 10.4481 122.854 10.4481C123.526 10.4481 124.056 10.3191 124.443 10.0611C124.83 9.80318 125.104 9.46921 125.265 9.05924C125.426 8.64466 125.507 8.21166 125.507 7.76023Z" fill="white"/>
<path d="M132.797 8.85195C132.797 8.62624 132.734 8.39822 132.61 8.1679C132.486 7.93297 132.26 7.71417 131.933 7.51149C131.606 7.3088 131.134 7.14067 130.517 7.00708C130.097 6.91496 129.729 6.81361 129.411 6.70306C129.098 6.59251 128.835 6.46122 128.623 6.30921C128.411 6.15259 128.252 5.96373 128.147 5.74262C128.041 5.52152 127.988 5.25895 127.988 4.95493C127.988 4.69236 128.043 4.44822 128.153 4.22251C128.269 3.99219 128.434 3.79181 128.651 3.62137C128.867 3.44633 129.13 3.31044 129.439 3.2137C129.747 3.11697 130.097 3.0686 130.489 3.0686C131.046 3.0686 131.523 3.15842 131.919 3.33807C132.32 3.51773 132.626 3.76877 132.838 4.09122C133.055 4.40907 133.163 4.77988 133.163 5.20367H132.783C132.783 4.89504 132.693 4.60714 132.513 4.33997C132.338 4.0728 132.08 3.8563 131.74 3.69047C131.399 3.52463 130.982 3.44172 130.489 3.44172C129.987 3.44172 129.579 3.51773 129.266 3.66974C128.953 3.82175 128.722 4.01291 128.575 4.24324C128.432 4.47356 128.361 4.70618 128.361 4.94111C128.361 5.13458 128.388 5.31423 128.444 5.48006C128.499 5.64128 128.605 5.79329 128.761 5.93609C128.923 6.07429 129.153 6.20557 129.452 6.32994C129.752 6.45431 130.143 6.57178 130.627 6.68233C131.221 6.81592 131.705 6.97714 132.078 7.16601C132.451 7.35487 132.725 7.58749 132.9 7.86388C133.08 8.13566 133.17 8.46732 133.17 8.85886C133.17 9.14907 133.108 9.41393 132.983 9.65347C132.863 9.893 132.688 10.1003 132.458 10.2753C132.232 10.4504 131.956 10.5863 131.629 10.683C131.307 10.7751 130.945 10.8212 130.544 10.8212C129.941 10.8212 129.429 10.7291 129.01 10.5448C128.596 10.3559 128.28 10.1072 128.064 9.79857C127.852 9.48533 127.746 9.14676 127.746 8.78286H128.119C128.151 9.21125 128.292 9.54752 128.54 9.79166C128.794 10.0312 129.1 10.2016 129.459 10.303C129.823 10.3997 130.185 10.4481 130.544 10.4481C131.037 10.4481 131.449 10.3698 131.781 10.2131C132.117 10.0565 132.371 9.85615 132.541 9.61201C132.711 9.36326 132.797 9.10991 132.797 8.85195Z" fill="white"/>
<path d="M139.844 8.85195C139.844 8.62624 139.782 8.39822 139.658 8.1679C139.534 7.93297 139.308 7.71417 138.981 7.51149C138.654 7.3088 138.182 7.14067 137.564 7.00708C137.145 6.91496 136.777 6.81361 136.459 6.70306C136.146 6.59251 135.883 6.46122 135.671 6.30921C135.459 6.15259 135.3 5.96373 135.194 5.74262C135.088 5.52152 135.035 5.25895 135.035 4.95493C135.035 4.69236 135.091 4.44822 135.201 4.22251C135.316 3.99219 135.482 3.79181 135.699 3.62137C135.915 3.44633 136.178 3.31044 136.486 3.2137C136.795 3.11697 137.145 3.0686 137.537 3.0686C138.094 3.0686 138.571 3.15842 138.967 3.33807C139.368 3.51773 139.674 3.76877 139.886 4.09122C140.102 4.40907 140.211 4.77988 140.211 5.20367H139.831C139.831 4.89504 139.741 4.60714 139.561 4.33997C139.386 4.0728 139.128 3.8563 138.787 3.69047C138.446 3.52463 138.03 3.44172 137.537 3.44172C137.035 3.44172 136.627 3.51773 136.314 3.66974C136 3.82175 135.77 4.01291 135.623 4.24324C135.48 4.47356 135.409 4.70618 135.409 4.94111C135.409 5.13458 135.436 5.31423 135.491 5.48006C135.547 5.64128 135.653 5.79329 135.809 5.93609C135.971 6.07429 136.201 6.20557 136.5 6.32994C136.8 6.45431 137.191 6.57178 137.675 6.68233C138.269 6.81592 138.753 6.97714 139.126 7.16601C139.499 7.35487 139.773 7.58749 139.948 7.86388C140.128 8.13566 140.218 8.46732 140.218 8.85886C140.218 9.14907 140.155 9.41393 140.031 9.65347C139.911 9.893 139.736 10.1003 139.506 10.2753C139.28 10.4504 139.004 10.5863 138.677 10.683C138.354 10.7751 137.993 10.8212 137.592 10.8212C136.989 10.8212 136.477 10.7291 136.058 10.5448C135.643 10.3559 135.328 10.1072 135.111 9.79857C134.9 9.48533 134.794 9.14676 134.794 8.78286H135.167C135.199 9.21125 135.339 9.54752 135.588 9.79166C135.842 10.0312 136.148 10.2016 136.507 10.303C136.871 10.3997 137.233 10.4481 137.592 10.4481C138.085 10.4481 138.497 10.3698 138.829 10.2131C139.165 10.0565 139.418 9.85615 139.589 9.61201C139.759 9.36326 139.844 9.10991 139.844 8.85195Z" fill="white"/>
<path d="M142.747 3.20679V10.683H142.373V3.20679H142.747ZM142.18 0.87134C142.18 0.765393 142.217 0.675568 142.291 0.601865C142.364 0.523556 142.454 0.484401 142.56 0.484401C142.666 0.484401 142.756 0.523556 142.829 0.601865C142.908 0.675568 142.947 0.765393 142.947 0.87134C142.947 0.977288 142.908 1.06711 142.829 1.14082C142.756 1.21452 142.666 1.25137 142.56 1.25137C142.454 1.25137 142.364 1.21452 142.291 1.14082C142.217 1.06711 142.18 0.977288 142.18 0.87134Z" fill="white"/>
<path d="M145.573 10.683H145.199V3.20679H145.573V10.683ZM145.51 6.3023L145.31 5.90845C145.356 5.53994 145.457 5.18755 145.614 4.85128C145.771 4.51041 145.976 4.20638 146.229 3.93921C146.482 3.67204 146.777 3.46014 147.113 3.30353C147.45 3.14691 147.821 3.0686 148.226 3.0686C148.604 3.0686 148.94 3.12157 149.235 3.22752C149.529 3.32886 149.778 3.49239 149.981 3.7181C150.184 3.93921 150.338 4.22481 150.444 4.5749C150.55 4.92498 150.603 5.34877 150.603 5.84627V10.683H150.23V5.84627C150.23 5.21058 150.142 4.72 149.967 4.37452C149.797 4.02443 149.559 3.78029 149.255 3.6421C148.951 3.50391 148.601 3.43481 148.205 3.43481C147.735 3.43481 147.332 3.54076 146.996 3.75265C146.664 3.95994 146.39 4.2202 146.174 4.53344C145.962 4.84668 145.801 5.16452 145.69 5.48697C145.584 5.80942 145.524 6.08119 145.51 6.3023Z" fill="white"/>
<path d="M155.64 10.8212C155.184 10.8212 154.758 10.7314 154.362 10.5517C153.965 10.3675 153.618 10.1095 153.318 9.77784C153.019 9.44618 152.784 9.05464 152.613 8.60321C152.448 8.14717 152.365 7.64738 152.365 7.10382V6.7998C152.365 6.25163 152.445 5.75184 152.607 5.30041C152.772 4.84437 152.998 4.45052 153.284 4.11886C153.574 3.78259 153.908 3.52463 154.286 3.34498C154.663 3.16073 155.069 3.0686 155.502 3.0686C155.916 3.0686 156.296 3.14691 156.642 3.30353C156.987 3.45554 157.287 3.67204 157.54 3.95303C157.798 4.23402 157.996 4.57029 158.134 4.96184C158.272 5.35338 158.342 5.78638 158.342 6.26084V6.69615H152.607V6.32303H157.968V6.23321C157.968 5.73111 157.867 5.27047 157.664 4.85128C157.462 4.42749 157.176 4.08662 156.808 3.82866C156.439 3.5707 156.004 3.44172 155.502 3.44172C155.087 3.44172 154.709 3.52924 154.369 3.70428C154.032 3.87933 153.742 4.12117 153.498 4.4298C153.254 4.73382 153.065 5.08851 152.931 5.49388C152.802 5.89924 152.738 6.33455 152.738 6.7998V7.10382C152.738 7.56907 152.812 8.00437 152.959 8.40974C153.106 8.8151 153.311 9.1721 153.574 9.48073C153.836 9.78475 154.143 10.0243 154.493 10.1993C154.848 10.3698 155.23 10.455 155.64 10.455C156.068 10.455 156.467 10.3836 156.835 10.2408C157.208 10.098 157.549 9.82621 157.858 9.42545L158.12 9.61201C157.955 9.84694 157.754 10.0565 157.519 10.2408C157.289 10.4204 157.017 10.5632 156.704 10.6692C156.395 10.7705 156.041 10.8212 155.64 10.8212Z" fill="white"/>
<path d="M164.691 8.85195C164.691 8.62624 164.629 8.39822 164.505 8.1679C164.381 7.93297 164.155 7.71417 163.828 7.51149C163.501 7.3088 163.029 7.14067 162.411 7.00708C161.992 6.91496 161.624 6.81361 161.306 6.70306C160.993 6.59251 160.73 6.46122 160.518 6.30921C160.306 6.15259 160.147 5.96373 160.041 5.74262C159.935 5.52152 159.882 5.25895 159.882 4.95493C159.882 4.69236 159.938 4.44822 160.048 4.22251C160.163 3.99219 160.329 3.79181 160.546 3.62137C160.762 3.44633 161.025 3.31044 161.333 3.2137C161.642 3.11697 161.992 3.0686 162.384 3.0686C162.941 3.0686 163.418 3.15842 163.814 3.33807C164.215 3.51773 164.521 3.76877 164.733 4.09122C164.949 4.40907 165.058 4.77988 165.058 5.20367H164.678C164.678 4.89504 164.588 4.60714 164.408 4.33997C164.233 4.0728 163.975 3.8563 163.634 3.69047C163.293 3.52463 162.877 3.44172 162.384 3.44172C161.882 3.44172 161.474 3.51773 161.161 3.66974C160.847 3.82175 160.617 4.01291 160.47 4.24324C160.327 4.47356 160.256 4.70618 160.256 4.94111C160.256 5.13458 160.283 5.31423 160.338 5.48006C160.394 5.64128 160.5 5.79329 160.656 5.93609C160.818 6.07429 161.048 6.20557 161.347 6.32994C161.647 6.45431 162.038 6.57178 162.522 6.68233C163.116 6.81592 163.6 6.97714 163.973 7.16601C164.346 7.35487 164.62 7.58749 164.795 7.86388C164.975 8.13566 165.065 8.46732 165.065 8.85886C165.065 9.14907 165.002 9.41393 164.878 9.65347C164.758 9.893 164.583 10.1003 164.353 10.2753C164.127 10.4504 163.851 10.5863 163.524 10.683C163.201 10.7751 162.84 10.8212 162.439 10.8212C161.836 10.8212 161.324 10.7291 160.905 10.5448C160.49 10.3559 160.175 10.1072 159.958 9.79857C159.747 9.48533 159.641 9.14676 159.641 8.78286H160.014C160.046 9.21125 160.186 9.54752 160.435 9.79166C160.689 10.0312 160.995 10.2016 161.354 10.303C161.718 10.3997 162.08 10.4481 162.439 10.4481C162.932 10.4481 163.344 10.3698 163.676 10.2131C164.012 10.0565 164.265 9.85615 164.436 9.61201C164.606 9.36326 164.691 9.10991 164.691 8.85195Z" fill="white"/>
<path d="M171.739 8.85195C171.739 8.62624 171.677 8.39822 171.553 8.1679C171.428 7.93297 171.203 7.71417 170.876 7.51149C170.549 7.3088 170.076 7.14067 169.459 7.00708C169.04 6.91496 168.671 6.81361 168.354 6.70306C168.04 6.59251 167.778 6.46122 167.566 6.30921C167.354 6.15259 167.195 5.96373 167.089 5.74262C166.983 5.52152 166.93 5.25895 166.93 4.95493C166.93 4.69236 166.985 4.44822 167.096 4.22251C167.211 3.99219 167.377 3.79181 167.594 3.62137C167.81 3.44633 168.073 3.31044 168.381 3.2137C168.69 3.11697 169.04 3.0686 169.432 3.0686C169.989 3.0686 170.466 3.15842 170.862 3.33807C171.263 3.51773 171.569 3.76877 171.781 4.09122C171.997 4.40907 172.106 4.77988 172.106 5.20367H171.725C171.725 4.89504 171.636 4.60714 171.456 4.33997C171.281 4.0728 171.023 3.8563 170.682 3.69047C170.341 3.52463 169.924 3.44172 169.432 3.44172C168.929 3.44172 168.522 3.51773 168.208 3.66974C167.895 3.82175 167.665 4.01291 167.518 4.24324C167.375 4.47356 167.303 4.70618 167.303 4.94111C167.303 5.13458 167.331 5.31423 167.386 5.48006C167.442 5.64128 167.547 5.79329 167.704 5.93609C167.865 6.07429 168.096 6.20557 168.395 6.32994C168.694 6.45431 169.086 6.57178 169.57 6.68233C170.164 6.81592 170.648 6.97714 171.021 7.16601C171.394 7.35487 171.668 7.58749 171.843 7.86388C172.023 8.13566 172.112 8.46732 172.112 8.85886C172.112 9.14907 172.05 9.41393 171.926 9.65347C171.806 9.893 171.631 10.1003 171.401 10.2753C171.175 10.4504 170.899 10.5863 170.572 10.683C170.249 10.7751 169.888 10.8212 169.487 10.8212C168.883 10.8212 168.372 10.7291 167.953 10.5448C167.538 10.3559 167.223 10.1072 167.006 9.79857C166.794 9.48533 166.688 9.14676 166.688 8.78286H167.061C167.094 9.21125 167.234 9.54752 167.483 9.79166C167.736 10.0312 168.043 10.2016 168.402 10.303C168.766 10.3997 169.127 10.4481 169.487 10.4481C169.98 10.4481 170.392 10.3698 170.724 10.2131C171.06 10.0565 171.313 9.85615 171.484 9.61201C171.654 9.36326 171.739 9.10991 171.739 8.85195Z" fill="white"/>
<path d="M183.783 8.27154C183.783 7.9537 183.728 7.67041 183.617 7.42166C183.506 7.17291 183.329 6.9495 183.085 6.75143C182.841 6.55335 182.521 6.3714 182.124 6.20557C181.733 6.03974 181.252 5.87851 180.68 5.72189C180.169 5.5837 179.708 5.4363 179.298 5.27968C178.888 5.11845 178.538 4.9342 178.248 4.72691C177.963 4.51962 177.744 4.27318 177.592 3.98758C177.44 3.69738 177.364 3.34959 177.364 2.94423C177.364 2.56189 177.447 2.21872 177.612 1.91469C177.783 1.61067 178.018 1.35271 178.317 1.14082C178.621 0.92892 178.976 0.767696 179.381 0.657142C179.787 0.541982 180.227 0.484401 180.701 0.484401C181.355 0.484401 181.933 0.608775 182.435 0.857521C182.938 1.10627 183.331 1.45405 183.617 1.90087C183.907 2.34309 184.052 2.86131 184.052 3.45554H183.679C183.679 2.95805 183.555 2.51353 183.306 2.12198C183.057 1.73044 182.709 1.42181 182.263 1.19609C181.82 0.970378 181.3 0.857521 180.701 0.857521C180.07 0.857521 179.533 0.954256 179.091 1.14773C178.649 1.34119 178.313 1.59685 178.082 1.91469C177.852 2.22793 177.737 2.5665 177.737 2.93041C177.737 3.19758 177.783 3.44633 177.875 3.67665C177.972 3.90697 178.133 4.12117 178.359 4.31924C178.584 4.51271 178.895 4.69697 179.292 4.87201C179.688 5.04245 180.185 5.20598 180.784 5.36259C181.281 5.49157 181.735 5.63668 182.145 5.7979C182.56 5.95912 182.917 6.15029 183.216 6.3714C183.52 6.59251 183.753 6.85738 183.914 7.16601C184.08 7.47003 184.163 7.83394 184.163 8.25772C184.163 8.6677 184.073 9.0316 183.893 9.34945C183.718 9.66729 183.474 9.93676 183.161 10.1579C182.848 10.3744 182.484 10.5402 182.069 10.6554C181.659 10.7659 181.219 10.8212 180.749 10.8212C180.321 10.8212 179.888 10.7705 179.45 10.6692C179.013 10.5678 178.612 10.4043 178.248 10.1786C177.884 9.94828 177.592 9.64195 177.371 9.25962C177.15 8.87729 177.039 8.40513 177.039 7.84315H177.412C177.412 8.34525 177.516 8.76443 177.723 9.1007C177.93 9.43697 178.2 9.70414 178.531 9.90222C178.868 10.0957 179.229 10.2362 179.616 10.3237C180.008 10.4066 180.386 10.4481 180.749 10.4481C181.339 10.4481 181.862 10.3559 182.318 10.1717C182.774 9.98743 183.131 9.73178 183.389 9.40472C183.652 9.07767 183.783 8.69994 183.783 8.27154Z" fill="white"/>
<path d="M190.948 3.20679H191.328V10.683H190.948V3.20679ZM191.01 7.76023L191.328 7.74641C191.328 8.18863 191.271 8.5963 191.155 8.96942C191.04 9.34254 190.863 9.66959 190.623 9.95058C190.384 10.227 190.077 10.4412 189.704 10.5932C189.331 10.7452 188.887 10.8212 188.371 10.8212C188.007 10.8212 187.673 10.7705 187.369 10.6692C187.069 10.5632 186.809 10.3974 186.588 10.1717C186.372 9.94598 186.203 9.65117 186.084 9.28726C185.969 8.91875 185.911 8.47423 185.911 7.9537V3.20679H186.284V7.96752C186.284 8.42356 186.335 8.81049 186.436 9.12834C186.542 9.44618 186.687 9.70184 186.871 9.89531C187.06 10.0888 187.279 10.2293 187.528 10.3168C187.781 10.4043 188.058 10.4481 188.357 10.4481C189.029 10.4481 189.559 10.3191 189.946 10.0611C190.333 9.80318 190.607 9.46921 190.768 9.05924C190.93 8.64466 191.01 8.21166 191.01 7.76023Z" fill="white"/>
<path d="M194.05 13.5574H193.677V3.20679H194.05V13.5574ZM199.405 6.86889V7.01399C199.405 7.58519 199.341 8.10341 199.212 8.56866C199.088 9.03391 198.906 9.43466 198.666 9.77093C198.427 10.1072 198.132 10.3675 197.782 10.5517C197.436 10.7314 197.042 10.8212 196.6 10.8212C196.181 10.8212 195.803 10.7613 195.467 10.6415C195.131 10.5218 194.838 10.3559 194.589 10.1441C194.345 9.93216 194.147 9.69262 193.995 9.42545C193.843 9.15367 193.737 8.87038 193.677 8.57557V5.53533C193.76 5.18525 193.882 4.86049 194.044 4.56108C194.205 4.26166 194.405 4.0014 194.645 3.78029C194.884 3.55458 195.165 3.37953 195.488 3.25516C195.815 3.13079 196.181 3.0686 196.586 3.0686C197.029 3.0686 197.425 3.15612 197.775 3.33117C198.125 3.50621 198.42 3.75956 198.659 4.09122C198.903 4.41828 199.088 4.81673 199.212 5.28659C199.341 5.75184 199.405 6.27927 199.405 6.86889ZM199.025 7.01399V6.86889C199.025 6.3714 198.975 5.91536 198.873 5.50079C198.777 5.0816 198.627 4.72 198.424 4.41598C198.226 4.10735 197.973 3.86781 197.664 3.69738C197.36 3.52694 197.003 3.44172 196.593 3.44172C196.123 3.44172 195.727 3.52003 195.405 3.67665C195.087 3.82866 194.827 4.02673 194.624 4.27087C194.426 4.51041 194.272 4.76606 194.161 5.03784C194.055 5.30501 193.977 5.55376 193.926 5.78408V8.40283C194.009 8.78055 194.161 9.12373 194.382 9.43236C194.603 9.74099 194.898 9.98743 195.267 10.1717C195.64 10.3559 196.087 10.4481 196.607 10.4481C197.017 10.4481 197.372 10.3629 197.671 10.1924C197.975 10.022 198.226 9.78475 198.424 9.48073C198.627 9.1721 198.777 8.80819 198.873 8.38901C198.975 7.96982 199.025 7.51149 199.025 7.01399Z" fill="white"/>
<path d="M201.803 13.5574H201.43V3.20679H201.803V13.5574ZM207.158 6.86889V7.01399C207.158 7.58519 207.094 8.10341 206.965 8.56866C206.84 9.03391 206.658 9.43466 206.419 9.77093C206.179 10.1072 205.884 10.3675 205.534 10.5517C205.189 10.7314 204.795 10.8212 204.353 10.8212C203.934 10.8212 203.556 10.7613 203.22 10.6415C202.883 10.5218 202.591 10.3559 202.342 10.1441C202.098 9.93216 201.9 9.69262 201.748 9.42545C201.596 9.15367 201.49 8.87038 201.43 8.57557V5.53533C201.513 5.18525 201.635 4.86049 201.796 4.56108C201.957 4.26166 202.158 4.0014 202.397 3.78029C202.637 3.55458 202.918 3.37953 203.24 3.25516C203.567 3.13079 203.934 3.0686 204.339 3.0686C204.781 3.0686 205.177 3.15612 205.527 3.33117C205.877 3.50621 206.172 3.75956 206.412 4.09122C206.656 4.41828 206.84 4.81673 206.965 5.28659C207.094 5.75184 207.158 6.27927 207.158 6.86889ZM206.778 7.01399V6.86889C206.778 6.3714 206.727 5.91536 206.626 5.50079C206.529 5.0816 206.38 4.72 206.177 4.41598C205.979 4.10735 205.725 3.86781 205.417 3.69738C205.113 3.52694 204.756 3.44172 204.346 3.44172C203.876 3.44172 203.48 3.52003 203.157 3.67665C202.84 3.82866 202.579 4.02673 202.377 4.27087C202.178 4.51041 202.024 4.76606 201.914 5.03784C201.808 5.30501 201.729 5.55376 201.679 5.78408V8.40283C201.762 8.78055 201.914 9.12373 202.135 9.43236C202.356 9.74099 202.651 9.98743 203.019 10.1717C203.392 10.3559 203.839 10.4481 204.36 10.4481C204.77 10.4481 205.124 10.3629 205.424 10.1924C205.728 10.022 205.979 9.78475 206.177 9.48073C206.38 9.1721 206.529 8.80819 206.626 8.38901C206.727 7.96982 206.778 7.51149 206.778 7.01399Z" fill="white"/>
<path d="M208.63 7.09V6.7998C208.63 6.25163 208.708 5.74953 208.865 5.2935C209.026 4.83746 209.249 4.44361 209.535 4.11195C209.825 3.78029 210.171 3.52463 210.571 3.34498C210.972 3.16073 211.414 3.0686 211.898 3.0686C212.386 3.0686 212.831 3.16073 213.232 3.34498C213.632 3.52463 213.978 3.78029 214.268 4.11195C214.558 4.44361 214.782 4.83746 214.938 5.2935C215.095 5.74953 215.173 6.25163 215.173 6.7998V7.09C215.173 7.63816 215.095 8.14026 214.938 8.5963C214.782 9.05233 214.558 9.44618 214.268 9.77784C213.982 10.1095 213.639 10.3675 213.238 10.5517C212.838 10.7314 212.396 10.8212 211.912 10.8212C211.424 10.8212 210.979 10.7314 210.578 10.5517C210.178 10.3675 209.832 10.1095 209.542 9.77784C209.252 9.44618 209.026 9.05233 208.865 8.5963C208.708 8.14026 208.63 7.63816 208.63 7.09ZM209.003 6.7998V7.09C209.003 7.53682 209.067 7.96291 209.196 8.36828C209.33 8.76904 209.521 9.12603 209.77 9.43927C210.019 9.75251 210.323 9.99895 210.682 10.1786C211.041 10.3582 211.451 10.4481 211.912 10.4481C212.368 10.4481 212.773 10.3582 213.128 10.1786C213.487 9.99895 213.791 9.75251 214.04 9.43927C214.289 9.12603 214.478 8.76904 214.607 8.36828C214.736 7.96291 214.8 7.53682 214.8 7.09V6.7998C214.8 6.36219 214.736 5.943 214.607 5.54224C214.478 5.14149 214.286 4.78449 214.033 4.47125C213.784 4.15341 213.48 3.90236 213.121 3.7181C212.762 3.53385 212.354 3.44172 211.898 3.44172C211.442 3.44172 211.034 3.53385 210.675 3.7181C210.32 3.90236 210.016 4.15341 209.763 4.47125C209.514 4.78449 209.325 5.14149 209.196 5.54224C209.067 5.943 209.003 6.36219 209.003 6.7998Z" fill="white"/>
<path d="M217.364 10.683H216.99V3.20679H217.364V10.683ZM220.328 3.14461L220.286 3.47627C220.213 3.46705 220.134 3.45784 220.051 3.44863C219.973 3.43942 219.89 3.43481 219.803 3.43481C219.383 3.43481 219.015 3.52003 218.697 3.69047C218.384 3.8609 218.121 4.09583 217.909 4.39525C217.702 4.69466 217.545 5.04014 217.44 5.43169C217.338 5.81863 217.288 6.23321 217.288 6.67542L217.039 6.69615C217.039 6.17102 217.094 5.68735 217.205 5.24513C217.32 4.80291 217.49 4.42058 217.716 4.09813C217.946 3.77108 218.234 3.51773 218.58 3.33807C218.93 3.15842 219.337 3.0686 219.803 3.0686C219.918 3.0686 220.019 3.07551 220.107 3.08933C220.194 3.10315 220.268 3.12157 220.328 3.14461Z" fill="white"/>
<path d="M224.612 3.20679V3.58682H221.15V3.20679H224.612ZM222.532 1.18918H222.912V8.89341C222.912 9.33102 222.963 9.66268 223.064 9.8884C223.17 10.1095 223.308 10.2592 223.479 10.3375C223.654 10.4112 223.84 10.4481 224.038 10.4481C224.181 10.4481 224.308 10.4435 224.418 10.4343C224.529 10.4204 224.649 10.4043 224.778 10.3859L224.84 10.7383C224.738 10.7705 224.607 10.7913 224.446 10.8005C224.285 10.8143 224.156 10.8212 224.059 10.8212C223.741 10.8212 223.467 10.7659 223.237 10.6554C223.011 10.5402 222.836 10.3421 222.712 10.0611C222.592 9.78014 222.532 9.3909 222.532 8.89341V1.18918Z" fill="white"/>
</svg>
